D:\Tools\spring-uden-backend\src\main\java\com\uden\springudenbackend\model\JwtResponse.java
D:\Tools\spring-uden-backend\src\main\java\com\uden\springudenbackend\service\UserService.java
D:\Tools\spring-uden-backend\src\main\java\com\uden\springudenbackend\service\UserServiceImpl.java
D:\Tools\spring-uden-backend\src\main\java\com\uden\springudenbackend\model\SiteUser.java
D:\Tools\spring-uden-backend\src\main\java\com\uden\springudenbackend\config\JwtAuthenticationEntryPoint.java
D:\Tools\spring-uden-backend\src\main\java\com\uden\springudenbackend\exception\CustomException.java
D:\Tools\spring-uden-backend\src\main\java\com\uden\springudenbackend\controller\SiteUserController.java
D:\Tools\spring-uden-backend\src\main\java\com\uden\springudenbackend\model\JwtRequest.java
D:\Tools\spring-uden-backend\src\main\java\com\uden\springudenbackend\controller\JwtAuthenticationController.java
D:\Tools\spring-uden-backend\src\main\java\com\uden\springudenbackend\service\SiteUserServiceImpl.java
D:\Tools\spring-uden-backend\src\main\java\com\uden\springudenbackend\config\JwtRequestFilter.java
D:\Tools\spring-uden-backend\src\main\java\com\uden\springudenbackend\model\DataResponse.java
D:\Tools\spring-uden-backend\src\main\java\com\uden\springudenbackend\controller\UserController.java
D:\Tools\spring-uden-backend\src\main\java\com\uden\springudenbackend\config\JwtTokenUtil.java
D:\Tools\spring-uden-backend\src\main\java\com\uden\springudenbackend\repository\SiteUserRepository.java
D:\Tools\spring-uden-backend\src\main\java\com\uden\springudenbackend\SpringUdenBackendApplication.java
D:\Tools\spring-uden-backend\src\main\java\com\uden\springudenbackend\model\User.java
D:\Tools\spring-uden-backend\src\main\java\com\uden\springudenbackend\service\SiteUserService.java
D:\Tools\spring-uden-backend\src\main\java\com\uden\springudenbackend\config\WebSecurityConfig.java
D:\Tools\spring-uden-backend\src\main\java\com\uden\springudenbackend\repository\UserRepository.java
D:\Tools\spring-uden-backend\src\main\java\com\uden\springudenbackend\service\JwtUserDetailsService.java
